{
    "PBP_WLC_305_2_CONTENT50": {
        "PBP_WLC_305_2_pdf/WLC 305 Reading Leadership Styles.pdf[0]": [
            "@", 
            "PROGRESSIVE", 
            "V", 
            "WOMEN\u2019S", 
            "LEADERSHIP", 
            "EMPOWERING.SUPPORTIVE.", 
            "BOLD.", 
            "Techniques", 
            "for", 
            "Developing", 
            "Your", 
            "Leadership", 
            "Style", 
            "(WLC", 
            "305)", 
            "Reading", 
            "Leadership", 
            "Styles", 
            "Adapted", 
            "from", 
            "\u201dThe", 
            "Wall", 
            "Street", 
            "Journal", 
            "Guide", 
            "to", 
            "Management\u201d", 
            "by", 
            "Alan", 
            "Murray,", 
            "published", 
            "by", 
            "Harper", 
            "Business.", 
            "Leadership", 
            "is", 
            "less", 
            "about", 
            "your", 
            "needs,", 
            "and", 
            "more", 
            "about", 
            "the", 
            "needs", 
            "of", 
            "the", 
            "people", 
            "and", 
            "the", 
            "organization", 
            "you", 
            "are", 
            "leading.", 
            "Leadership", 
            "styles", 
            "are", 
            "not", 
            "something", 
            "to", 
            "be", 
            "tried", 
            "on", 
            "like", 
            "so", 
            "many", 
            "suits,", 
            "to", 
            "see", 
            "which", 
            "fits.", 
            "Rather,", 
            "they", 
            "should", 
            "be", 
            "adapted", 
            "to", 
            "the", 
            "particular", 
            "demands", 
            "of", 
            "the", 
            "situation,", 
            "the", 
            "particular", 
            "requirements", 
            "of", 
            "the", 
            "people", 
            "involved", 
            "and", 
            "the", 
            "particular", 
            "challenges", 
            "facing", 
            "the", 
            "organization.", 
            "Click", 
            "the", 
            "link", 
            "below", 
            "to", 
            "read", 
            "the", 
            "full", 
            "article:", 
            "Leadership", 
            "Styles", 
            "Women", 
            "in", 
            "Leadership", 
            "Certificate", 
            "376", 
            "Technology", 
            "Drive", 
            "Malvern,", 
            "PA", 
            "19355\u20141315", 
            "|", 
            "1\u2014877\u2014477\u20141755", 
            "We", 
            "invite", 
            "you", 
            "to", 
            "be", 
            "inspired", 
            "at:", 
            "ProgressiveWomensLeadership.com"
        ]
    }, 
    "PBP_WLC_305_2_CONTENT00": {
        "PBP_WLC_305_2_pdf/user_guide.pdf[7]": [
            "Using", 
            "the", 
            "Settings", 
            "Menu", 
            "From", 
            "the", 
            "Table", 
            "of", 
            "Contents,", 
            "access", 
            "the", 
            "Settings", 
            "menu", 
            "by", 
            "clicking", 
            "the", 
            "Settings", 
            "Ia.", 
            "icon.", 
            "-", 
            "In", 
            "the", 
            "Settings", 
            "menu,", 
            "adjust", 
            "the", 
            "text", 
            "size", 
            "to", 
            "personal", 
            "preference.", 
            "-", 
            "Click", 
            "the", 
            "Reset", 
            "button", 
            "to", 
            "reset", 
            "course", 
            "progress.", 
            "The", 
            "course", 
            "will", 
            "restart", 
            "at", 
            "Unit", 
            "1,", 
            "but", 
            "user", 
            "notes", 
            "and", 
            "bookmarks", 
            "from", 
            "all", 
            "units", 
            "will", 
            "be", 
            "preserved.", 
            "5", 
            "pin-mm\u201c:", 
            "LIMP", 
            "50W\"!!!", 
            "It?\u201d", 
            "Laptop", 
            "Security", 
            "UNIT", 
            "\u2018I", 
            ":", 
            "Walnut-m", 
            "UNIT", 
            "2", 
            ".'", 
            "Laptop", 
            "Security", 
            "A", 
            "m...", 
            "Women", 
            "in", 
            "Leadership", 
            "Certificate", 
            "376", 
            "Technology", 
            "Drive", 
            "Malvern,", 
            "PA", 
            "19355\u20141315", 
            "|", 
            "1\u2014877\u2014477\u20141755", 
            "Page", 
            "8", 
            "We", 
            "invite", 
            "you", 
            "to", 
            "be", 
            "inspired", 
            "at:", 
            "ProgressiveWomensLeadership.com"
        ], 
        "PBP_WLC_305_2_pdf/user_guide.pdf[6]": [
            "Using", 
            "the", 
            "Search", 
            "Feature", 
            "To", 
            "search", 
            "selected", 
            "text", 
            "in", 
            "either", 
            "article", 
            "text", 
            "or", 
            "in", 
            "my", 
            "notes,", 
            "booksmarks", 
            "and", 
            "/", 
            "or", 
            "highlights,", 
            "from", 
            "the", 
            "table", 
            "of", 
            "contents,", 
            "access", 
            "the", 
            "Search", 
            "Feature", 
            "by", 
            "clicking", 
            "the", 
            "Search", 
            "icon", 
            "Q", 
            "in", 
            "the", 
            "upper", 
            "left", 
            "part", 
            "of", 
            "the", 
            "screen.", 
            "5", 
            "\u201c~11me", 
            "WWI?", 
            "59W\u201c!!!", 
            "1T\u201c", 
            "Laptop", 
            "Smu\ufb02ly", 
            "i", 
            "UNIT", 
            "1", 
            ":", 
            "Walcm", 
            "UNIT", 
            "2", 
            ":", 
            "Laptop", 
            "Security", 
            "33;", 
            "\u2014\u00bb", 
            "mm", 
            "Search", 
            "|:|", 
            "Article", 
            "Text", 
            "0", 
            "Results", 
            "Sci:", 
            "8-.", 
            "Topic", 
            "&", 
            "Uni!", 
            "-fir<.l", 
            "loiasl", 
            "'", 
            "Women", 
            "in", 
            "Leadership", 
            "Certificate", 
            "376", 
            "Technology", 
            "Drive", 
            "Malvern,", 
            "PA", 
            "19355\u20141315", 
            "|", 
            "1\u2014877\u2014477\u20141755", 
            "Page", 
            "7", 
            "We", 
            "invite", 
            "you", 
            "to", 
            "be", 
            "inspired", 
            "at:", 
            "ProgressiveWomensLeadership.com"
        ], 
        "PBP_WLC_305_2_pdf/user_guide.pdf[1]": [
            "Table", 
            "of", 
            "Contents", 
            "CONTENTS", 
            "Navigating", 
            "the", 
            "Course", 
            "Interacting", 
            "with", 
            "Content", 
            "Working", 
            "with", 
            "Notes", 
            "Managing", 
            "the", 
            "Windows", 
            "Using", 
            "the", 
            "Search", 
            "Feature", 
            "Using", 
            "the", 
            "Settings", 
            "Menu", 
            "m\ufb02mU'l-l-\u2018(N", 
            "Women", 
            "in", 
            "Leadership", 
            "Certificate", 
            "376", 
            "Technology", 
            "Drive", 
            "Malvern,", 
            "PA", 
            "19355\u20141315", 
            "|", 
            "1\u2014877\u2014477\u20141755", 
            "Page", 
            "2", 
            "We", 
            "invite", 
            "you", 
            "to", 
            "be", 
            "inspired", 
            "at:", 
            "ProgressiveWomensLeadership.com"
        ], 
        "PBP_WLC_305_2_pdf/user_guide.pdf[0]": [
            "Progressive", 
            "Women\u2019s", 
            "Leadership", 
            "Course", 
            "User", 
            "Guide", 
            "Women", 
            "in", 
            "Leadership", 
            "Certificate", 
            "376", 
            "Technology", 
            "Drive", 
            "Malvern,", 
            "PA", 
            "19355-1315", 
            "|", 
            "1-877\u2014477\u20141755", 
            "We", 
            "invite", 
            "you", 
            "to", 
            "be", 
            "inspired", 
            "at:", 
            "ProgressiveWomensLeadership.com"
        ], 
        "PBP_WLC_305_2_pdf/user_guide.pdf[3]": [
            "Interacting", 
            "with", 
            "Content", 
            "While", 
            "working", 
            "in", 
            "a", 
            "unit,", 
            "highlight", 
            "or", 
            "double", 
            "click", 
            "on", 
            "the", 
            "content", 
            "to", 
            "bring", 
            "up", 
            "the", 
            "radial", 
            "menu.", 
            "to", 
            "join", 
            "in", 
            "an", 
            "online", 
            "discussion", 
            "related", 
            "to", 
            "tie", 
            "lesson", 
            "content.", 
            "For", 
            "maximum", 
            "bene\ufb01t", 
            "am", 
            "this", 
            "discussion", 
            "several", 
            "times", 
            "a", 
            "week.", 
            "Onine", 
            "discussion", 
            "postings", 
            "must", 
            "be", 
            "of", 
            "\u201cmeanir:", 
            "to", 
            "the", 
            "value", 
            "that", 
            "you", 
            "add", 
            "to", 
            "th", 
            "'", 
            "\u2018", 
            "occur", 
            "in", 
            "various", 
            "ways", 
            "such", 
            "as:", 
            "ost", 
            "on", 
            "a", 
            "topic", 
            "that", 
            "starts", 
            ")ost", 
            "to", 
            "your", 
            "experience", 
            "Bookmark", 
            "Copy", 
            "Highlight", 
            "Wikipedia", 
            "Search", 
            "Create", 
            "Note", 
            "Google", 
            "Search", 
            "The", 
            "image", 
            "above", 
            "defines", 
            "the", 
            "functions", 
            "of", 
            "the", 
            "radial", 
            "menu.", 
            "-", 
            "Bookmark:", 
            "Highlights", 
            "text", 
            "in", 
            "red;", 
            "places", 
            "a", 
            "bookmark", 
            "icon", 
            "in", 
            "the", 
            "bookmarks", 
            "and", 
            "notes", 
            "navigator.", 
            "-", 
            "Highlight:", 
            "Highlights", 
            "text", 
            "in", 
            "yellow;", 
            "works", 
            "like", 
            "a", 
            "regular", 
            "pen-and-paper", 
            "highlighter.", 
            "\u2019", 
            "Create", 
            "Note:", 
            "Highlights", 
            "text", 
            "in", 
            "blue;", 
            "copies", 
            "text", 
            "over", 
            "to", 
            "Notes", 
            "Tab", 
            "where", 
            "you", 
            "can", 
            "interact", 
            "with", 
            "E1", 
            "the", 
            "note", 
            "(see", 
            "Working", 
            "with", 
            "Notes", 
            "for", 
            "more", 
            "detail).", 
            "Google", 
            "Search:", 
            "Opens", 
            "a", 
            "new", 
            "tab", 
            "in", 
            "your", 
            "browser", 
            "and", 
            "performs", 
            "a", 
            "Google", 
            "search", 
            "of", 
            "the", 
            "select-", 
            "ed", 
            "text.", 
            "W", 
            "Wikipedia", 
            "Search:", 
            "Opens", 
            "a", 
            "new", 
            "tab", 
            "in", 
            "your", 
            "browser", 
            "and", 
            "performs", 
            "a", 
            "Wikipedia", 
            "search", 
            "of", 
            "the", 
            "selected", 
            "text.", 
            "I}.", 
            "Copy:", 
            "Copies", 
            "text,", 
            "images,", 
            "or", 
            "slides,", 
            "which", 
            "can", 
            "then", 
            "be", 
            "pasted", 
            "inside", 
            "the", 
            "Notes", 
            "Tab.", 
            "COPY", 
            "I", 
            "You!", 
            "Rayon-mum", 
            "in", 
            "ma", 
            "ms", 
            "is", 
            ")1", 
            "NOTE:", 
            "Once", 
            "you've", 
            "created", 
            "several", 
            "bookmarks,", 
            "you", 
            "can", 
            "navigate", 
            "through", 
            "them", 
            "using", 
            "the", 
            "forward", 
            "and", 
            "back", 
            "arrows", 
            "on", 
            "the", 
            "bookmarks", 
            "and", 
            "notes", 
            "navigator.", 
            "Women", 
            "in", 
            "Leadership", 
            "Certificate", 
            "376", 
            "Technology", 
            "Drive", 
            "Malvern,", 
            "PA", 
            "19355\u20141315", 
            "|", 
            "1\u2014877\u2014477\u20141755", 
            "Page", 
            "4", 
            "We", 
            "invite", 
            "you", 
            "to", 
            "be", 
            "inspired", 
            "at:", 
            "ProgressiveWomensLeadership.com"
        ], 
        "PBP_WLC_305_2_pdf/user_guide.pdf[2]": [
            "Navigating", 
            "the", 
            "Course", 
            "Upon", 
            "accessing", 
            "the", 
            "course,", 
            "you", 
            "will", 
            "land", 
            "on", 
            "the", 
            "Homepage.", 
            "Click", 
            "the", 
            "begin", 
            "button", 
            "to", 
            "start", 
            "a", 
            "unit.", 
            "When", 
            "finished", 
            "with", 
            "a", 
            "unit,", 
            "you", 
            "can", 
            "perform", 
            "one", 
            "of", 
            "the", 
            "following", 
            "actions:", 
            "1.", 
            "Continue", 
            "to", 
            "the", 
            "next", 
            "unit", 
            "by", 
            "clicking", 
            "the", 
            "orange", 
            "Next", 
            "Unit", 
            "button", 
            "2.", 
            "Return", 
            "to", 
            "the", 
            "Table", 
            "of", 
            "Contents", 
            "by", 
            "clicking", 
            "the", 
            "Home", 
            "button,", 
            "located", 
            "in", 
            "the", 
            "top-left", 
            "corner", 
            "Mtw\ufb02lomm", 
            "Laptop", 
            "Security", 
            "7019\u201c:", 
            "Laptop", 
            "Security", 
            "UNIT", 
            "1", 
            ":Welcome", 
            "A", 
            "Women", 
            "in", 
            "Leadership", 
            "Certificate", 
            "376", 
            "Technology", 
            "Drive", 
            "Malvern,", 
            "PA", 
            "19355\u20141315", 
            "|", 
            "1\u2014877\u2014477\u20141755", 
            "Page", 
            "3", 
            "We", 
            "invite", 
            "you", 
            "to", 
            "be", 
            "inspired", 
            "at:", 
            "ProgressiveWomensLeadership.com"
        ], 
        "PBP_WLC_305_2_pdf/user_guide.pdf[5]": [
            "Managing", 
            "the", 
            "Windows", 
            "You", 
            "have", 
            "the", 
            "option", 
            "to", 
            "select", 
            "full", 
            "screen,", 
            "or", 
            "minimize", 
            "any", 
            "of", 
            "the", 
            "windows,", 
            "including", 
            "the", 
            "course", 
            "content", 
            "window,", 
            "notes", 
            "window", 
            "and", 
            "article", 
            "window.", 
            "-", 
            "To", 
            "expand", 
            "a", 
            "window", 
            "to", 
            "fill", 
            "the", 
            "screen,", 
            "click", 
            "the", 
            "full", 
            "screen", 
            "button", 
            "A", 
            "for", 
            "that", 
            "window.", 
            "-", 
            "To", 
            "minimize", 
            "a", 
            "window,", 
            "click", 
            "the", 
            "minimize", 
            "button", 
            "=for", 
            "that", 
            "window.", 
            "Minimized", 
            "windows", 
            "will", 
            "be", 
            "accessible", 
            "by", 
            "clicking", 
            "their", 
            "respective", 
            "tabs", 
            "\u201c", 
            "at", 
            "the", 
            "bottom", 
            "of", 
            "the", 
            "screen.", 
            "\\l-ilH'rl", 
            "ml", 
            "I'lj\ufb02;..I\u2018.-r1", 
            "rum\u201c:", 
            "3,", 
            "I", 
            "\u201dH.", 
            "flu-1.1.!", 
            "Women", 
            "in", 
            "Leadership", 
            "Certificate", 
            "376", 
            "Technology", 
            "Drive", 
            "Malvern,", 
            "PA", 
            "19355\u20141315", 
            "|", 
            "1\u2014877\u2014477\u20141755", 
            "We", 
            "invite", 
            "you", 
            "to", 
            "be", 
            "inspired", 
            "at:", 
            "ProgressiveWomensLeadership.com", 
            "0-m-", 
            "Minimize", 
            "MMMMLWTH", 
            "human-s.", 
            "Imam-Input?\u201c", 
            "m", 
            "m:", 
            "\u201cFiance-mph}", 
            "n1", 
            ".9:", 
            "may\u201d:", 
            "uni", 
            "ARIN!\u201c", 
            "II", 
            "khaki!!!", 
            "hurt-", 
            "bn'l", 
            "Whpnm", 
            "Mm", 
            "m-s.", 
            "Lliamh", 
            "Ira-Tara", 
            "I", 
            "incl-1P1!", 
            "I'-", 
            "\ufb02ew;", 
            "m", 
            "Sir}-", 
            "IBII", 
            "II", 
            "AWE-rm\u00bb;", 
            "Tmi\ufb02\ufb02\ufb02", 
            "[Minn", 
            "in", 
            "wh\u2018hnhhwbea-o!", 
            "Whhl\u2018dm;", 
            "rum-n", 
            "Will-L1H:", 
            "In!", 
            "tic-cant!", 
            "man\u201d", 
            "I.", 
            ".1:", 
            "Info?", 
            "I\"!", 
            "m", 
            "am.", 
            "i", 
            "(Ariana", 
            "\u201dMK-u", 
            "(m.", 
            "I", 
            "hit", 
            "dun-94:41!", 
            "Efs'KlF-\u2018l'r-f\ufb02l-", 
            "Jar-I'-", 
            "\u2018M", 
            "eff-I", 
            "[III-re:-", 
            "\u201cM", 
            "W.", 
            "W\"", 
            "In!", 
            "nod-turnout!", 
            "men", 
            "I", 
            "Inhal-", 
            "Hill.", 
            "I", 
            "In\ufb01ll!!!-", 
            "\ufb01mhlmlldlbnl", 
            "lam", 
            "shim.", 
            "\u201cMb", 
            "rm1mllh-r", 
            "n-I-im-n.-I-\u2018,-\"-1'r-'.r'-aa-H-r-ciil", 
            "Minty", 
            "\u201cM1.", 
            "Mm.", 
            "man-pr\u201c", 
            "f\ufb02l\ufb02l\ufb02illw", 
            "lm'llwdmmhmtm\ufb02\ufb02\ufb02h\ufb02i\ufb02kw", 
            "la':", 
            "mam-Wu", 
            "min.", 
            "'l'm", 
            "\u201cyuan-mum", 
            "(\"mu", 
            "mm.", 
            "In", 
            "unap-", 
            "Iqu", 
            "can:", 
            "1mm", 
            "Elf-Mr", 
            "TM", 
            "m", 
            "I'll-MM", 
            "TW-", 
            "\ufb02\ufb02t\u2018", 
            "Hum-lib?", 
            "Mm\ufb01qm\ufb01m,mupwg-um\ufb02m", 
            "*5", 
            "5M:", 
            "mn'\ufb02l\ufb02.u'1mi\ufb02l\u2018mwwdly", 
            "mau\ufb01\"", 
            "railway-um", 
            "\ufb02p\ufb02m\u2018\ufb01mmwlmFr-i", 
            "Inn-pi!\"", 
            "lh-r", 
            "Mid-u!\"", 
            "in!", 
            "ILII'J", 
            "mil", 
            ".Illl", 
            "Me'slhrm\ufb02", 
            "ha", 
            "M-lIN-I'", 
            "M.-", 
            ".ud", 
            "m", 
            "at.", 
            "Hum", 
            "mum\u2018-", 
            "mm.", 
            ":mum", 
            "tar-L", 
            "Ind", 
            "mu]", 
            "km", 
            "or", 
            "bu", 
            "ms,", 
            "to", 
            "n", 
            "twin-r", 
            "mmm\ufb02m\u2018l\ufb02whllmd\u2019hdnm", 
            "m", 
            "film-sum", 
            "Ila-HM", 
            "HIW-ifnml", 
            "Emma-1N\u201c", 
            "um", 
            "1-9:!th", 
            "Eli-Ill", 
            "u", 
            "I-rp-wmn", 
            "[uh", 
            "2am,", 
            ".\u2018wuLIc-a", 
            "W", 
            "Ilium", 
            ":m-Mhm'lw", 
            "m", 
            "h'fMth-rmlpuntk\ufb02", 
            "Ill", 
            "MW\u201c.", 
            "w\ufb02u", 
            "lh\u2018f'l.", 
            "India-1L", 
            "Fun-Ii-", 
            "I'\ufb02r", 
            "HI:", 
            "inks-slum", 
            "0\u2018\u201c", 
            "arrival-In!", 
            "Huh", 
            "Him", 
            "I\"", 
            "n-r\u2018nn", 
            "INN-mid", 
            "I\u2018llr", 
            "IBM", 
            "-", 
            "in", 
            "mm", 
            ":mMn", 
            "uufrnuduruamllmllu", 
            "Ian", 
            "Minimized", 
            "Screen", 
            "Button", 
            "Full", 
            "Screen", 
            "Page", 
            "6"
        ], 
        "PBP_WLC_305_2_pdf/user_guide.pdf[4]": [
            "Working", 
            "with", 
            "Notes", 
            "Click", 
            "the", 
            "Create", 
            "Note", 
            "icon", 
            "in", 
            "the", 
            "radial", 
            "menu", 
            "to", 
            "create", 
            "a", 
            "new", 
            "note.", 
            "Give", 
            "the", 
            "note", 
            "a", 
            "name", 
            "to", 
            "identify", 
            "it", 
            "later", 
            "and", 
            "click", 
            "Save.", 
            "Once", 
            "you\u2019ve", 
            "named", 
            "the", 
            "note,", 
            "select", 
            "the", 
            "note", 
            "function", 
            "you\u2019d", 
            "like", 
            "to", 
            "use:", 
            "-", 
            "g", 
            "x", 
            "6.3", 
            "1", 
            "Important", 
            "Note", 
            "V", 
            "o_", 
            "\u2018", 
            "E", 
            "I", 
            "In", 
            "order", 
            "to", 
            "avoid", 
            "the", 
            "frustration", 
            "of", 
            "losing", 
            "valuable", 
            "wo", 
            "<", 
            "you", 
            "ma", 
            "con", 
            "ider", 
            "then", 
            "cutting", 
            "and", 
            "pasting", 
            "them", 
            "onto", 
            "the", 
            "discussio", 
            "boa", 
            "d.", 
            "Cursor", 
            "Eraser", 
            "Pencil", 
            "Text", 
            "Box", 
            "Pencil", 
            "Color", 
            "Voice", 
            "Recorder", 
            ",8", 
            "\u2018", 
            "1", 
            "Compa'mgt\u2018", 
            "Allecled", 
            "by", 
            "Laptop", 
            "The\u201c", 
            "v", 
            "\u2018", 
            "Edit", 
            "NOte", 
            "Laptop", 
            "thieves", 
            "are", 
            "evil", 
            "ll", 
            "Delete", 
            "Now", 
            "To", 
            "remove", 
            "any", 
            "note", 
            "content", 
            "you\u2019ve", 
            "added,", 
            "double", 
            "click", 
            "on", 
            "the", 
            "material", 
            "you'd", 
            "like", 
            "to", 
            "remove", 
            "and", 
            "use", 
            "the", 
            "radial", 
            "menu", 
            "that", 
            "appears.", 
            "To", 
            "delete", 
            "a", 
            "note", 
            "entirely,", 
            "click", 
            "the", 
            "Delete", 
            "Note", 
            "icon.", 
            "To", 
            "edit", 
            "a", 
            "note,", 
            "click", 
            "the", 
            "Edit", 
            "Note", 
            "icon.", 
            "Women", 
            "in", 
            "Leadership", 
            "Certificate", 
            "Page", 
            "5", 
            "376", 
            "Technology", 
            "Drive", 
            "Malvern,", 
            "PA", 
            "19355\u20141315", 
            "|", 
            "1\u2014877\u2014477\u20141755", 
            "We", 
            "invite", 
            "you", 
            "to", 
            "be", 
            "inspired", 
            "at:", 
            "ProgressiveWomensLeadership.com"
        ]
    }, 
    "PBP_WLC_305_2_CONTENT80": {
        "PBP_WLC_305_2_pdf/WLC 305 Live Event Instructions 2015.pdf[0]": [
            "@", 
            "PROGRESSIVE", 
            "V", 
            "WOMEN\u2019S", 
            "LEADERSHIP", 
            "EMPOWERING.SUPPORTIVE.", 
            "BOLD.", 
            "Techniques", 
            "for", 
            "Developing", 
            "Your", 
            "Leadership", 
            "Style", 
            "(WLC", 
            "305)", 
            "Expert", 
            "Presentation", 
            "Expert", 
            "Presentation", 
            "Access", 
            "Instructions", 
            "In", 
            "order", 
            "to", 
            "attend", 
            "the", 
            "live", 
            "event", 
            "scheduled", 
            "for", 
            "Monday,", 
            "October", 
            "5,", 
            "2015", 
            "from", 
            "1-2", 
            "pm", 
            "ET,", 
            "you", 
            "will", 
            "need", 
            "to", 
            "1.", 
            "Prior", 
            "to", 
            "the", 
            "event,", 
            "make", 
            "sure", 
            "your", 
            "computer", 
            "is", 
            "configured", 
            "correctly", 
            "by", 
            "clicking", 
            "on", 
            "this", 
            "test", 
            "link:", 
            "http://www.omnovia.com/event/93561439222213", 
            "2.", 
            "**", 
            "Technical", 
            "support", 
            "with", 
            "this", 
            "test", 
            "link", 
            "is", 
            "available", 
            "via", 
            "live", 
            "chat", 
            "24/7", 
            "at:", 
            "http://support.omnovia.com", 
            "or", 
            "you", 
            "can", 
            "call", 
            "281-500-4065", 
            "x", 
            "1", 
            "3.", 
            "To", 
            "attend", 
            "the", 
            "live", 
            "session,", 
            "go", 
            "to", 
            "http://www.omnovia.com/event/50161441884865", 
            "4.", 
            "To", 
            "sign", 
            "in,", 
            "enter", 
            "the", 
            "same", 
            "email", 
            "address", 
            "used", 
            "on", 
            "your", 
            "course", 
            "registration.", 
            "*", 
            "This", 
            "is", 
            "a", 
            "\u201dweb-only\u201d", 
            "event.", 
            "Please", 
            "ensure", 
            "your", 
            "computer", 
            "has", 
            "speakers", 
            "and", 
            "the", 
            "volume", 
            "is", 
            "turned", 
            "up", 
            "in", 
            "order", 
            "to", 
            "hear", 
            "the", 
            "instructor.", 
            "**Technical", 
            "support", 
            "when", 
            "accessing", 
            "the", 
            "live", 
            "event", 
            "is", 
            "available", 
            "by", 
            "calling:", 
            "800-964-6033", 
            "Women", 
            "in", 
            "Leadership", 
            "Certificate", 
            "376", 
            "Technology", 
            "Drive", 
            "Malvern,", 
            "PA", 
            "19355\u20141315", 
            "|", 
            "1\u2014877-477\u20141755", 
            "We", 
            "invite", 
            "you", 
            "to", 
            "be", 
            "inspired", 
            "at:", 
            "ProgressiveWomensLeadership.com"
        ]
    }, 
    "PBP_WLC_305_2_CONTENT10": {
        "PBP_WLC_305_2_pdf//WLC 305 Course Completion Checklist 2015.pdf[0]": [
            "@", 
            "PROGRESSIVE", 
            "V", 
            "WOMEN\u2019S", 
            "LEADERSHIP", 
            "EIEIEIEI", 
            "Ell]", 
            "EMPOWERING.", 
            "SUPPORTIVE.", 
            "BOLD.", 
            "Techniques", 
            "for", 
            "Developing", 
            "Your", 
            "Leadership", 
            "Style", 
            "(WLC305)", 
            "Course", 
            "Completion", 
            "Checklist", 
            "Assess", 
            "Your", 
            "Skills", 
            "Wednesday,", 
            "Sept", 
            "30th", 
            "\u2014", 
            "Monday,", 
            "October", 
            "5\u2018\u201c", 
            "View", 
            "the", 
            "Presentations:", 
            "Finding", 
            "Your", 
            "Leadership", 
            "Style", 
            "Parts", 
            "1", 
            "&", 
            "2", 
            "Read", 
            "the", 
            "Article:", 
            "\u201dLeadership", 
            "Styles\u201d", 
            "Complete", 
            "the", 
            "Activity:", 
            "Finding", 
            "and", 
            "Using", 
            "Your", 
            "Leadership", 
            "Style", 
            "Workbook", 
            "Participate", 
            "in", 
            "the", 
            "Discussion", 
            "Live", 
            "Expert-led", 
            "Session", 
            "Monday,", 
            "October", 
            "5th", 
            "1:00", 
            "PM", 
            "ET", 
            "Featuring:", 
            "Colleen", 
            "Slaughter", 
            "Attend", 
            "the", 
            "Live", 
            "Expert-Led", 
            "Session", 
            "Apply", 
            "What", 
            "You", 
            "Learned", 
            "Tuesday,", 
            "October", 
            "6th", 
            "\u2014", 
            "Friday,", 
            "October", 
            "9th", 
            "Complete", 
            "the", 
            "Practical", 
            "Application", 
            "Activity:", 
            "\u201dPracticing", 
            "Effective", 
            "Leadership", 
            "Skills", 
            "and", 
            "Techniques\u201d", 
            "Participate", 
            "in", 
            "the", 
            "Discussion", 
            "Complete", 
            "the", 
            "Course", 
            "Feedback", 
            "Form.", 
            "Please", 
            "click", 
            "this", 
            "link", 
            "to", 
            "download", 
            "the", 
            "checklist.", 
            "Women", 
            "in", 
            "Leadership", 
            "Certificate", 
            "376", 
            "Technology", 
            "Drive", 
            "Malvern,", 
            "PA", 
            "19355-1315", 
            "|", 
            "1\u2014877-477\u20141755", 
            "We", 
            "invite", 
            "you", 
            "to", 
            "be", 
            "inspired", 
            "at:", 
            "ProgressiveWomensLeadership.com"
        ]
    }, 
    "PBP_WLC_305_2_CONTENT90": {
        "PBP_WLC_305_2_pdf/Activity_Practicing Effective Leadership Skills and Techniques.pdf[0]": [
            "@", 
            "PROGRESSIVE", 
            "V", 
            "WOMEN\u2019S", 
            "LEADERSHIP", 
            "EMPOWERING.SUPPORTIVE.", 
            "BOLD.", 
            "Techniques", 
            "for", 
            "Developing", 
            "Your", 
            "Leadership", 
            "Style", 
            "(WLC305)", 
            "Leadership", 
            "Style", 
            "Activity", 
            "Practicing", 
            "Effective", 
            "Leadership", 
            "Skills", 
            "and", 
            "Techniques", 
            "Put", 
            "some", 
            "of", 
            "the", 
            "Leadership", 
            "Skills", 
            "and", 
            "Techniques", 
            "covered", 
            "in", 
            "the", 
            "live", 
            "presentation", 
            "into", 
            "practice", 
            "over", 
            "the", 
            "next", 
            "few", 
            "days.", 
            "In", 
            "the", 
            "discussion,", 
            "share", 
            "any", 
            "differences", 
            "you", 
            "discovered", 
            "in", 
            "your", 
            "professionals", 
            "interactions", 
            "that", 
            "resulted", 
            "from", 
            "this", 
            "change", 
            "in", 
            "behavior.", 
            "Women", 
            "in", 
            "Leadership", 
            "Certificate", 
            "376", 
            "Technology", 
            "Drive", 
            "Malvern,", 
            "PA", 
            "19355\u20141315", 
            "|", 
            "1\u2014877-477\u20141755", 
            "We", 
            "invite", 
            "you", 
            "to", 
            "be", 
            "inspired", 
            "at:", 
            "ProgressiveWomensLeadership.com"
        ]
    }
}