﻿"first name","last name","email","internal id","external id","course","first interaction"
"Kortnay","Woods","woodsk@tcnj.edu","9a01654c-5324-4c39-bcfb-9d8b0d56ef9c","57X","PBP_MAH_103_5","2016-03-15 17:04"
"Larry ","Clark","lclark@mohawkmetal.com","46fe7a38-9016-482a-a56e-7a51489930ce","55H","PBP_MAH_103_5","2016-03-15 14:58"
"Christy","Vasconcellos","christyv@pioneerballoon.com","51415e4d-137e-429b-9cbb-200a4f5e5a35","26Q","PBP_MAH_103_5","2016-03-15 14:20"
"Geri","Cammack","jgilchrist@lrmctr.org","44c074b2-43cf-437f-9c37-f0f29264c7b7","56Z","PBP_MAH_103_5","2016-03-11 15:42"
"Rian","Roan","rroan@mountnittany.org","4e5fa329-0f43-4fe4-998d-1959a7250994","55Z","PBP_MAH_103_5","2016-03-15 21:12"
"David","Cha","david@thelucagroup.tv","ae95996f-2574-40a3-acf7-6020c3612f48","55D","PBP_MAH_103_5","2016-03-09 18:12"
"Anita","Taylor","anita.taylor@tananachiefs.org","9ef60e19-fd55-4fd7-9772-a4dd25596e76","55P","PBP_MAH_103_5","2016-03-09 14:49"
"Kelly","Vogel","kvogel@ahtins.com","5966a556-aa7e-43a3-9071-bbe80e26a0fb","55N","PBP_MAH_103_5","2016-03-11 16:59"
"Steven","Leggett","sleggett@abilenehabitat.org","d71792a4-9af8-42a9-ba3a-43dea1e3f1d6","56D","PBP_MAH_103_5","2016-03-09 17:10"
"Yessica","Porras","yessica@gingoldcompany.com","1e70b40f-fb26-4050-82ec-b1a007320844","55K","PBP_MAH_103_5","2016-03-15 13:51"
"Chrissy","Sommer","CHRISSYS@harker.org","fc80ac62-711d-4b4a-a58c-24ebb0cd723c","55E","PBP_MAH_103_5","2016-03-08 18:54"
"Laura ","Moss","lmoss@mountnittany.org","86ee4f0c-4a3f-47fd-b65b-a439e28e68e2","55Q","PBP_MAH_103_5","2016-03-15 19:48"
"Rene","Butcher","rbutcher@aqnet.com","3f2d2b58-383b-478a-9434-23f12ae9dcec","55F","PBP_MAH_103_5","2016-03-09 09:22"
"Anthony","Ellis","tonye@fieldfastener.com","b46517b7-ea58-483b-a184-33376ff18c84","4GX","PBP_MAH_103_5","2016-03-09 11:45"
"Gilmar","Guzman","gguzman@envirotronics.com","326036b4-e36f-43bc-9911-7f859f9476f0","55G","PBP_MAH_103_5","2016-03-09 06:26"
"CeeCe","Corwin","CeeCe.Corwin@muckleshootcasino.com","7e62dd29-80f2-4bac-ae1f-0797edb28444","55J","PBP_MAH_103_5","2016-03-09 16:39"
"Kyle","Most","kmost@butterball.com","6ca6cff4-17db-4ea4-8b89-a2a4c75fb68f","56G","PBP_MAH_103_5","2016-03-10 18:35"
