﻿"first name","last name","email","internal id","external id","course","first interaction"
"Gary","Blazosky","Gary.Blazosky@gosiger.com","36523c78-d085-463f-a09a-41c2c6b1ff9c","52B","PBP_MAH_102_5","2016-02-17 11:11"
"Kim","Simpson","kimberlys@centuryss.com","c447e9e9-0bbc-41a2-b48a-6832863d503a","53H","PBP_MAH_102_5","2016-02-15 15:36"
"Danita","Kendro","danitak@centuryss.com","582fdcae-5321-4669-86d1-7071d1e341a1","53Z","PBP_MAH_102_5","2016-02-15 14:22"
"Dan","Adelson","daniela@centuryss.com","63d9aadd-5fa2-469b-bfeb-82c198b44598","53R","PBP_MAH_102_5","2016-02-15 10:38"
"Shannon","Raith","shannonr@ucan.net","ca066273-5523-4b7a-992d-901ad7805087","53Y","PBP_MAH_102_5","2016-02-15 10:03"
"Sarenah","Washington","sarenah.washington@rivkin.com","e1a2ad7f-07c5-41b7-9e65-da586c42fb1c","52G","PBP_MAH_102_5","2016-02-11 16:27"
"Sarah","Knight","sarahk@centuryss.com","5d4c1f6a-cec3-439a-9183-5a7b66c51abc","53G","PBP_MAH_102_5","2016-02-15 09:59"
"Anthony","Ellis","tonye@fieldfastener.com","b46517b7-ea58-483b-a184-33376ff18c84","4GX","PBP_MAH_102_5","2016-02-09 15:17"
"Lenny","Byers","lennyb@centuryss.com","2fe8c054-9235-4e82-b30b-87844be9c067","53Q","PBP_MAH_102_5","2016-02-11 11:19"
"Janice","French","jfrench@labestbabies.org","83798f90-3e5d-4e95-aa15-8e70bb179edb","52Y","PBP_MAH_102_5","2016-02-11 09:05"
"Erin","Norris","enorris@fpmgrp.com","69229c2d-bf22-48ae-a685-32f63cbbe444","545","PBP_MAH_102_5","2016-02-16 16:49"
"Sameka","Goro","samekas@centuryss.com","0aae2aa7-7a8b-4626-b4ad-673567dd6d20","53J","PBP_MAH_102_5","2016-02-10 21:47"
"Jason","Shaw","jasons@centuryss.com","fe810a12-1829-4126-98f8-c2d4dafbece3","53T","PBP_MAH_102_5","2016-02-15 15:55"
"Staci","Germuska","stacig@centuryss.com","4e1f37c4-0c4f-43aa-a426-bc62e7d84792","53P","PBP_MAH_102_5","2016-02-10 13:09"
"Sue","Thoma","suet@centuryss.com","467460ce-5a1d-4901-a87e-8a205cf7ac7c","53N","PBP_MAH_102_5","2016-02-10 19:18"
"Mia","Pirl","miap@centuryss.com","b66d135a-31d1-41d5-a90c-66fa071d113b","53M","PBP_MAH_102_5","2016-02-15 10:31"
"LeAnne","Coward","lcoward@p-m-s.com","b77639d8-0ce4-4483-a2b9-5957e5be5ba3","52C","PBP_MAH_102_5","2016-02-09 16:45"
"Bret","Christensen","bchristensen@enzabac.com","457750b3-6d2e-4bdb-99a0-11d95bc4e6b3","543","PBP_MAH_102_5","2016-02-15 10:29"
"Sandy","Hofacker","sandy@canyonmc.com","dfe74e22-88a3-4b4e-9707-ef41c33e5c96","52H","PBP_MAH_102_5","2016-02-11 14:07"
"Phil","Falcocchio","philf@centuryni.com","16fccbfc-997b-44b7-910a-fc1e23a8c2c6","4S8","PBP_MAH_102_5","2016-02-10 11:23"
"Gillean","Barkyoumb","gillean.barkyoumb@isagenixcorp.com","5926f6f3-af98-46cc-b432-01f163274f20","52E","PBP_MAH_102_5","2016-02-09 16:07"
"Jennifer","Menez","jennifer.menez@artfx.com","910b4324-0494-4630-9db9-957e794df20b","54X","PBP_MAH_102_5","2016-02-15 15:56"
"Jess","Yacobucci","jessicay@centuryss.com","d8a45ffc-4be3-4921-a3d5-df42b895c3f4","53S","PBP_MAH_102_5","2016-02-12 21:49"
"Michael","Klein","mklein@co.nye.nv.us","a5bee9c5-291a-418a-8043-f623e29695f2","52F","PBP_MAH_102_5","2016-02-11 12:48"
"DIONNA","SMITH","dionna.smith@bklighting.com","dc4f8b91-d559-4d1f-96b2-137e7a57c19c","52A","PBP_MAH_102_5","2016-02-10 12:56"
