﻿"first name","last name","email","internal id","external id","course","first interaction"
"Lana","Tatham","lana.popove@fedex.com","e15aa9d9-75fd-4a9c-8bcd-cc4c0e937f9f","4FA","PBP_WLC_303_6","2016-08-16 18:25"
"Lisa","Mehl","lmehl@soccour.com","8add8567-0417-4db7-a77b-06345187c29a","5LM","PBP_WLC_303_6","2016-08-15 17:28"
"Rachael","Smith","rsmith@dreamtown.com","b5c67a89-ee4a-4079-bc1c-20729cb63de4","5M2","PBP_WLC_303_6","2016-08-15 16:38"
"Angela","Avery","angela.avery@sonoma-county.org","893af54c-b456-4738-b0a7-12466f4762ff","41B","PBP_WLC_303_6","2016-08-11 15:08"
"Sylvia","Vasquez","sylvia.vasquez@intel.com","b27fd7fb-8f27-43df-83cd-a1efa42f0e17","5HA","PBP_WLC_303_6","2016-08-12 14:26"
"Aisha","Taylor","ataylor@cpshr.us","5be48437-0508-4a6c-aec5-d668236243a1","5MY","PBP_WLC_303_6","2016-08-11 13:53"
"Theresa","Anderson","terri.anderson@hmhco.com","7794dcb8-ab11-458c-88c9-e23151d8e7df","5LL","PBP_WLC_303_6","2016-08-12 11:10"
"Brandy","Strauss","brandy.strauss@dhin.org","2ca7ccd2-b0f9-4ceb-b1d8-22aade3c7cd0","5M7","PBP_WLC_303_6","2016-08-12 13:20"
"Katie","Sang","ksang@a10networks.com","e2d2a117-04be-4224-b638-7c2edcb8bf83","5LQ","PBP_WLC_303_6","2016-08-12 13:01"
"Kristan","Barnett","barnett@brcap.com","3879e448-6f12-4ea9-a0f1-cedbfddea665","5LS","PBP_WLC_303_6","2016-08-10 12:38"
"Lori","Broome","Lori.Broome@dhin.org","0cc0c58f-f3e7-4bb0-a0e9-6f1aaf7a63b8","5MA","PBP_WLC_303_6","2016-08-10 08:52"
"Michele","Ribolla","Michele.Ribolla@dhin.org","d6cfebfb-722c-47cd-928e-000ef070d98a","5MC","PBP_WLC_303_6","2016-08-12 10:09"
"Erica","Hutchinson","Erica.Hutchinson@dhin.org","df7c3af5-5505-428e-bdfc-051f1128d03e","5ME","PBP_WLC_303_6","2016-08-10 22:08"
"Diane","DeVincentis","diane_devincentis@eisai.com","8945817f-171c-421f-9c3b-9cff8bf4f097","5LT","PBP_WLC_303_6","2016-08-11 07:23"
"Anna","Doubeni","adoubeni@me.com","f8d65089-a702-405a-b9fc-e2183372cf08","5LU","PBP_WLC_303_6","2016-08-12 09:44"
"Pier","Straws","Pier.Straws@dhin.org","a61dcf3b-4d4d-43e1-ac70-c69a01cfc09c","5MF","PBP_WLC_303_6","2016-08-11 13:48"
"Annemarie","Linden","annemarie.linden@nccvt.k12.de.us","0e20e282-aaef-4860-983f-8476964d659b","3WD","PBP_WLC_303_6","2016-08-16 14:59"
"Willetta","Carter","willetta.carter@schneider-electric.com","eb36e0a6-f4b1-4cf8-9b6f-dea9a51ef182","5LW","PBP_WLC_303_6","2016-08-11 13:17"
"Toni","Brown","tpbrown@drpa.org","31635290-8179-440a-b3ce-0a1829d994c5","3JW","PBP_WLC_303_6","2016-08-12 12:39"
"Diane","Kelly","dkelly@crista.net","d49d9266-6649-434f-8727-124e72d3c657","5LE","PBP_WLC_303_6","2016-08-10 17:11"
"Melissa","Chito","mchito@virox.com","e1a2f1c4-3003-44d0-9e8c-4fc8de47e85d","5MX","PBP_WLC_303_6","2016-08-11 10:29"
"Patricia","Fortner","pfortner@regenxbio.com","083ab88a-a49e-46d0-928b-8675625ef0bb","5MK","PBP_WLC_303_6","2016-08-15 12:03"
"Eileen","Goldstein","EILEEN_GOLDSTEIN@eisai.com","bb2ddbfa-b96b-4a13-8598-a64766200902","5LP","PBP_WLC_303_6","2016-08-12 13:03"
"Alejandra","Pacheco","apacheco@parker.com","40dce213-0d91-446c-8d2e-a48e3f8b004a","5JT","PBP_WLC_303_6","2016-08-11 10:01"
"Lisa","Ramage","lramage@metrohealth.org","0fb90637-2301-4580-a14c-eb1a8cec217d","5MG","PBP_WLC_303_6","2016-08-10 17:16"
"Nancy","Bean","nbean@provo.org","afa06e70-576c-4301-960b-82cf230b54f7","5MM","PBP_WLC_303_6","2016-08-10 13:14"
"Catherine","Paulish","Cathy.Paulish@dhin.org","47450546-14b1-4ee6-bf16-3e7ac2a90fd3","5M8","PBP_WLC_303_6","2016-08-10 08:02"
"Chris","Tilgner","sheila.a.thornton@state.or.us","0717e77d-95b1-4deb-a5fd-670fd7f8df08","5LR","PBP_WLC_303_6","2016-08-10 13:03"
"Cinda","Locker","cinda_locker@uscco.com","afe5553e-6ecd-4663-aaef-08b81e9767c7","5LG","PBP_WLC_303_6","2016-08-10 16:04"
"Tammy","Forrest","tammy.forrest@cbifederalservices.com","f8d22586-9ec4-4159-b816-bdcb5a1a8b00","5LY","PBP_WLC_303_6","2016-08-10 15:02"
"Jamie","Rocke","Jamie.Rocke@dhin.org","ebb67565-7288-473f-b4f5-fbb34211d91b","5MB","PBP_WLC_303_6","2016-08-10 09:48"
"Tiffany","Groth","tiffanygroth@yahoo.com","235d8247-5dbd-4187-9627-b02114e48718","5LD","PBP_WLC_303_6","2016-08-12 12:07"
"Tracy","Lenz","tylenz@bpa.gov","59d22b5b-9d81-4c68-b408-d29faee104f1","5ED","PBP_WLC_303_6","2016-08-09 17:23"
"Kristy","Brown","kbrown@centrexrehab.com","4809b232-4710-4175-bd27-5100c7a5dec2","5JM","PBP_WLC_303_6","2016-08-10 12:47"
"Debbie","Replogle","debbie.replogle@mariner-consulting.com","aa07d818-b900-4298-b5ce-329b97309dca","5LC","PBP_WLC_303_6","2016-08-10 08:35"
"LISA","HUTCHINGS","lisa.hutchings@azchem.com","eca2448b-f08a-412f-9014-e3afe2bc715b","5LK","PBP_WLC_303_6","2016-08-12 10:05"
"Robin","Wooten","robin.wooten@tn.gov","3a813bcd-7b6a-4785-b703-0cb2ea01e702","5JR","PBP_WLC_303_6","2016-08-13 07:34"
"Laura","Marialke","lmarialke@uniformcolor.com","d71d200c-9b41-4d32-9c2a-4fbb1b49007f","5LA","PBP_WLC_303_6","2016-08-10 09:21"
"Geralynn","Demarest","demarest@sunycgcc.edu","8ba0cfa7-449e-492c-9347-31a9b7052a8a","3HR","PBP_WLC_303_6","2016-08-11 19:10"
"Sharon","Anderson","sharonand424@gmail.com","b9be17ea-aff8-418b-88a8-2e1106ceb70e","5MJ","PBP_WLC_303_6","2016-08-11 13:07"
"Monica","Juarez","monica.l.juarez@usps.gov","512e340b-891c-41d6-9fc1-31e5b15c9bb4","5LF","PBP_WLC_303_6","2016-08-10 11:02"
"Kirsten","Cherry","kcherry@princegeorgecountyva.gov","614dae83-e406-4e03-bfb6-e32bbfaeb3a4","5EL","PBP_WLC_303_6","2016-08-10 16:34"
"TerriLynn","Palmer","TerriLynn.Palmer@dhin.org","bfc8718e-dcf2-4802-98cb-0d335259c54d","5M9","PBP_WLC_303_6","2016-08-10 12:57"
"Ali","Charowsky","ali.charowsky@dhin.org","cfeeb033-9bbe-4d0e-87a3-e1a04fcf29c1","5M6","PBP_WLC_303_6","2016-08-10 08:33"
"Sarah","Shindelman","sshindelman@a10networks.com","5da20cf5-51a8-4971-8a0c-319ac8e2e5e5","5LN","PBP_WLC_303_6","2016-08-11 19:20"
"Angie","Gervais","agervais@co.strafford.nh.us","d99f006b-c8c2-4779-be53-e37e6dd8e8e4","5M5","PBP_WLC_303_6","2016-08-10 13:15"
"Susan","Carrillo","scarrillo@rgare.com","9d33cd56-e9c7-4b44-a9af-a7efe8bc622d","5M3","PBP_WLC_303_6","2016-08-10 11:36"
"Lynn","Misener","Lynn.Misener@dhin.org","08e18f64-6e15-4425-a7d9-0b4d72a095b0","5MD","PBP_WLC_303_6","2016-08-12 10:58"
"Laurie ","Schramm","lschramm@jamesaustin.com","2556f2f3-2c2f-408d-9529-a653382c6874","5MH","PBP_WLC_303_6","2016-08-10 15:20"
"Mary","Pierson","mpierson@cenacleretreathouse.org","9749ff84-f555-4072-b490-ba460d0f3249","5M4","PBP_WLC_303_6","2016-08-11 09:43"
"Kim","Garver","kdgarver@gmail.com","f9ea2054-42e9-495c-b437-fbf186884849","5NE","PBP_WLC_303_6","2016-08-10 09:32"
"LaDonna","Sheppard","lsheppard@stantoncountyhospital.com","db318481-f1c2-4742-b949-166804a03a80","5NG","PBP_WLC_303_6","2016-08-10 14:44"
"Donna","Frutiger","donna.frutiger@intel.com","00cc43c5-e6e3-46a8-9aa6-32ddd8f118f7","32A","PBP_WLC_303_6","2016-08-14 19:55"
